{
    "logger": {
        "tags_to_console": [
            "INFO",
            "WARNING",
            "ERROR"
        ],
        "tags_to_file": [
            "WARNING",
            "ERROR"
        ]
    }
}
